20

1
Laws Son
1
1
1
1
1
1
1
1
1
1

2
Yejide Jeremy
Llinos Asu
2 1
1 2
1 2
2 1
2 1

1
Ella Jay
1
1

8
Llinos Asu
Larry He
Joy Har
Ella Jay
Kine Brooke
Ausma Iahme
Anika Ma
Roman Cola
6 4 1 5 8 2 3 7
8 2 4 1 7 5 6 3
1 3 5 7 8 2 4 6
3 7 6 1 5 2 4 8
7 8 2 4 1 6 3 5

2
Larry He
Ella Jay
1 2
1 2
2 1
1 2
1 2

10
Ella Jay
Roman Cola
Joy Har
Yejide Jeremy
Laws Son
Anika Ma
Llinos Asu
Larry He
Ausma Iahme
Kine Brooke
8 7 1 3 2 4 5 9 10 6
5 9 1 10 2 6 4 7 3 8
10 2 8 5 1 3 7 9 4 6
5 3 8 9 6 10 2 1 7 4
8 5 9 6 7 10 4 2 3 1
7 4 6 8 10 5 9 2 1 3
4 5 6 2 9 7 8 1 10 3
7 2 6 10 5 8 4 3 9 1
1 9 10 2 6 7 3 4 5 8
3 8 4 6 10 2 7 5 1 9
10 3 7 6 9 1 8 2 5 4

9
Ella Jay
Kine Brooke
Anika Ma
Laws Son
Joy Har
Llinos Asu
Roman Cola
Larry He
Ausma Iahme
2 7 4 8 6 1 5 9 3
9 6 7 5 2 4 1 3 8
8 5 6 3 9 7 2 1 4
8 4 7 2 9 1 3 5 6
9 7 1 2 6 4 5 3 8
9 4 2 8 3 7 1 6 5
3 5 9 7 6 1 4 8 2
2 6 9 3 1 7 8 4 5
5 9 3 7 6 8 4 2 1
8 3 5 4 1 6 9 7 2

5
Ausma Iahme
Yejide Jeremy
Llinos Asu
Joy Har
Kine Brooke
5 4 3 1 2
2 1 4 5 3
4 2 5 1 3
3 5 4 2 1

10
Laws Son
Anika Ma
Yejide Jeremy
Roman Cola
Ausma Iahme
Ella Jay
Joy Har
Larry He
Kine Brooke
Llinos Asu
10 4 6 7 2 9 3 5 1 8
3 8 10 4 2 5 6 9 7 1
5 1 3 10 4 6 8 7 9 2
8 1 2 10 5 6 3 9 7 4
4 7 1 8 5 6 10 9 3 2
8 7 4 2 3 1 10 6 5 9
1 6 4 5 2 10 7 9 8 3
7 4 2 3 10 5 9 6 8 1
8 1 4 7 10 2 6 3 5 9
10 3 9 2 4 7 1 5 6 8

8
Anika Ma
Joy Har
Ella Jay
Kine Brooke
Larry He
Laws Son
Yejide Jeremy
Llinos Asu
8 6 4 2 1 7 5 3
3 1 4 7 8 5 2 6
2 6 1 7 3 4 5 8
8 1 5 7 6 3 2 4
5 7 1 6 4 2 8 3
6 3 2 1 7 8 4 5
2 7 3 6 4 1 5 8

4
Kine Brooke
Roman Cola
Yejide Jeremy
Laws Son
4 2 1 3
1 3 4 2
1 2 4 3
2 1 3 4
2 4 3 1
1 2 4 3

10
Laws Son
Roman Cola
Ausma Iahme
Anika Ma
Yejide Jeremy
Kine Brooke
Ella Jay
Llinos Asu
Joy Har
Larry He
2 9 5 8 7 6 1 3 10 4
6 1 3 4 5 7 10 2 8 9
9 3 10 5 7 8 4 1 2 6

1
Larry He
1
1
1
1
1
1

4
Ausma Iahme
Ella Jay
Kine Brooke
Laws Son
4 1 3 2
2 4 1 3
1 3 2 4
1 4 2 3
3 4 1 2
2 3 1 4
3 1 4 2

9
Llinos Asu
Ausma Iahme
Larry He
Laws Son
Joy Har
Roman Cola
Ella Jay
Kine Brooke
Anika Ma
6 4 3 5 1 9 2 7 8
8 4 9 7 2 6 3 5 1

8
Anika Ma
Yejide Jeremy
Kine Brooke
Ausma Iahme
Joy Har
Laws Son
Llinos Asu
Roman Cola
4 2 6 3 5 8 1 7
7 5 4 8 3 6 2 1
6 1 4 3 8 7 2 5
7 6 4 1 3 2 8 5
6 7 2 1 5 3 8 4

10
Anika Ma
Llinos Asu
Laws Son
Ausma Iahme
Larry He
Yejide Jeremy
Roman Cola
Joy Har
Ella Jay
Kine Brooke
5 3 2 9 6 1 10 8 4 7
9 3 1 10 4 2 6 8 5 7
9 7 2 5 8 6 4 10 3 1
2 7 5 4 1 9 10 3 8 6
4 2 5 8 6 1 10 9 3 7
2 6 4 7 10 1 8 5 3 9

9
Larry He
Ella Jay
Kine Brooke
Anika Ma
Llinos Asu
Laws Son
Yejide Jeremy
Joy Har
Roman Cola
1 2 9 6 7 5 4 8 3
2 5 7 6 3 9 8 1 4
6 5 3 8 9 4 7 1 2
1 6 8 5 9 7 3 2 4
8 2 9 5 4 7 1 3 6
9 8 2 3 4 5 7 1 6
5 9 1 2 8 4 6 3 7
3 4 8 2 9 7 6 1 5

2
Yejide Jeremy
Anika Ma
2 1
2 1
2 1
1 2
1 2
2 1
1 2
2 1

9
Roman Cola
Yejide Jeremy
Kine Brooke
Joy Har
Anika Ma
Llinos Asu
Ella Jay
Larry He
Ausma Iahme
9 7 8 6 4 1 2 5 3
1 6 4 3 2 7 5 8 9
7 3 1 8 5 6 2 4 9
6 9 2 1 3 8 4 5 7
9 7 6 4 8 2 1 3 5
3 9 1 7 4 8 6 2 5
8 2 4 7 9 3 1 5 6
6 8 9 3 2 4 5 1 7
7 3 5 4 9 1 8 6 2
1 9 3 2 4 7 5 8 6
4 8 1 7 2 3 5 9 6
8 1 5 7 3 4 2 6 9
