23

3
A
B
C
1 2 3
2 1 3
2 3 1
1 2 3
3 1 2

2
A
B
1 2
2 1

3
A
B
C
1 2 3
1 3 2
2 1 3

4
A
B
C
D
1 2 3 4

4
A
B
C
D
2 1 3 4

4
A
B
C
D
3 1 2 4

4
A
B
C
D
4 2 3 1

1
A
1

2
A
B
2 1
2 1

3
A
B
C
3 2 1
3 2 1

4
A
B
C
D
4 3 2 1
4 3 2 1

3
A
B
C
1 2 3
1 3 2
2 1 3

5
A
B
C
D
E
1 2 3 4 5

5
A
B
C
D
E
2 1 3 4 5
2 1 3 4 5
2 1 3 4 5

5
A
B
C
D
E
3 1 2 4 5
3 1 2 4 5
4 1 2 3 5

5
A
B
C
D
E
4 1 2 3 5
4 1 2 3 5
5 1 2 3 4

5
A
B
C
D
E
5 1 2 3 4
5 1 2 3 4
4 1 2 3 5

6
A
B
C
D
E
F
1 2 3 4 5 6
1 2 3 4 5 6

6
A
B
C
D
E
F
2 1 3 4 5 6
2 1 3 4 5 6
4 1 2 3 5 6

6
A
B
C
D
E
F
3 1 2 4 5 6
3 1 2 4 5 6
4 1 2 3 5 6

6
A
B
C
D
E
F
4 1 2 3 5 6
3 1 2 4 5 6
4 1 2 3 5 6

6
A
B
C
D
E
F
1 4 2 3 5 6
1 3 2 4 5 6
1 4 2 3 5 6

6
A
B
C
D
E
F
1 4 2 3 5 6
1 3 2 4 5 6
1 4 2 3 5 6
1 6 5 4 3 2
