20

4
Anushka Shah
Jessica Ouyang
Rohit Anantha
Dhruv Arora
2 3 1 4
3 4 2 1
3 1 2 4
4 2 1 3
3 4 2 1
2 1 3 4
2 3 4 1
1 3 2 4
1 2 4 3

8
Anushka Shah
Jessica Ouyang
Rohit Anantha
Dhruv Arora
Nitisha Pokkula
Morgan Michalic
Haviva Bradski
Isha Nadig
1 4 8 2 6 5 7 3
2 7 8 4 3 6 1 5

8
Anushka Shah
Jessica Ouyang
Rohit Anantha
Dhruv Arora
Nitisha Pokkula
Morgan Michalic
Haviva Bradski
Isha Nadig
1 7 2 6 4 3 8 5
7 5 1 6 3 2 8 4
6 8 5 1 3 7 2 4
1 7 5 8 6 2 4 3
1 7 4 8 6 5 2 3

8
Anushka Shah
Jessica Ouyang
Rohit Anantha
Dhruv Arora
Nitisha Pokkula
Morgan Michalic
Haviva Bradski
Isha Nadig
3 8 1 4 7 2 5 6
1 4 6 5 7 2 8 3
5 1 3 2 4 6 7 8
4 2 8 1 3 5 7 6
8 1 5 6 4 7 2 3
4 1 5 6 3 2 8 7
7 3 4 1 2 8 6 5
4 1 5 7 8 6 3 2

3
Morgan Michalic
Nitisha Pokkula
Dhruv Arora
2 1 3
3 1 2
3 1 2
3 2 1

8
Anushka Shah
Jessica Ouyang
Rohit Anantha
Dhruv Arora
Nitisha Pokkula
Morgan Michalic
Haviva Bradski
Isha Nadig
2 7 6 5 3 1 8 4
6 7 5 2 8 3 1 4
2 4 3 8 1 5 6 7
2 7 4 8 5 3 6 1
2 5 7 1 4 3 8 6
4 1 6 3 5 7 8 2
1 2 3 7 6 8 5 4
8 7 5 3 1 4 6 2

3
Jessica Ouyang
Rohit Anantha
Dhruv Arora
2 1 3
1 3 2
2 3 1
1 2 3
2 1 3
3 1 2
1 2 3
3 1 2

9
Anushka Shah
Jessica Ouyang
Rohit Anantha
Dhruv Arora
Nitisha Pokkula
Morgan Michalic
Haviva Bradski
Isha Nadig
Manav Shah
7 3 9 2 5 4 1 8 6
8 5 9 7 2 6 1 3 4

3
Anushka Shah
Jessica Ouyang
Rohit Anantha
1 2 3
1 3 2
2 1 3
3 2 1
1 3 2
3 1 2
3 1 2

4
Anushka Shah
Jessica Ouyang
Rohit Anantha
Dhruv Arora
2 1 3 4
2 3 4 1
1 2 3 4
4 3 2 1
1 3 2 4
4 1 3 2

8
Anushka Shah
Jessica Ouyang
Rohit Anantha
Dhruv Arora
Nitisha Pokkula
Morgan Michalic
Haviva Bradski
Isha Nadig
6 4 5 8 7 3 2 1
4 1 8 5 2 3 6 7
5 2 7 6 4 8 1 3
3 8 2 1 6 4 7 5

8
Anushka Shah
Jessica Ouyang
Rohit Anantha
Dhruv Arora
Nitisha Pokkula
Morgan Michalic
Haviva Bradski
Isha Nadig
5 1 3 6 4 2 7 8

10
Anushka Shah
Jessica Ouyang
Rohit Anantha
Dhruv Arora
Nitisha Pokkula
Morgan Michalic
Haviva Bradski
Isha Nadig
Viki Sarmasi
Emily Ma
1 2 4 5 3 7 10 6 9 8

4
Haviva Bradski
Isha Nadig
Viki Sarmasi
Emily Ma
1 2 4 3
3 4 2 1
3 4 1 2
3 4 2 1
4 1 2 3
3 4 2 1
3 2 1 4

5
Morgan Michalic
Haviva Bradski
Isha Nadig
Viki Sarmasi
Emily Ma
2 4 5 1 3
4 2 5 1 3
1 2 4 5 3
5 2 1 4 3
3 1 4 2 5
2 3 4 1 5
3 2 1 5 4
3 2 1 5 4
5 3 4 2 1
5 3 4 1 2

8
Anushka Shah
Jessica Ouyang
Rohit Anantha
Dhruv Arora
Nitisha Pokkula
Morgan Michalic
Haviva Bradski
Isha Nadig
5 4 7 2 1 3 6 8
6 2 5 7 1 8 4 3
7 2 5 4 6 3 8 1
2 1 8 6 4 5 3 7
8 5 7 4 1 2 3 6
1 6 5 4 7 3 8 2
5 8 3 6 2 7 1 4
3 2 4 1 6 7 8 5
8 5 2 4 7 3 1 6

6
Anushka Shah
Jessica Ouyang
Rohit Anantha
Dhruv Arora
Nitisha Pokkula
Morgan Michalic
1 3 4 6 5 2

7
Anushka Shah
Jessica Ouyang
Rohit Anantha
Dhruv Arora
Nitisha Pokkula
Morgan Michalic
Haviva Bradski
6 7 5 1 3 4 2
5 2 1 6 4 3 7
6 7 1 2 4 3 5
5 2 6 1 3 7 4
5 2 1 6 4 3 7
6 3 5 1 2 4 7
7 1 5 2 6 4 3
2 7 6 5 3 4 1
6 5 4 3 2 1 7

10
Anushka Shah
Jessica Ouyang
Rohit Anantha
Dhruv Arora
Nitisha Pokkula
Morgan Michalic
Haviva Bradski
Isha Nadig
Viki Sarmasi
Emily Ma
4 6 10 1 5 9 8 2 7 3
2 8 9 6 5 7 3 10 1 4
9 6 2 7 8 3 10 1 4 5
1 7 8 5 6 9 10 2 4 3
8 10 1 2 5 6 3 9 7 4
2 1 8 6 7 5 9 4 3 10
3 7 4 6 10 8 1 2 9 5
5 8 7 3 1 2 6 10 9 4
5 8 6 3 1 4 9 10 7 2
9 8 10 3 6 4 2 5 1 7

3
Rohit Anantha
Dhruv Arora
Nitisha Pokkula
2 3 1
1 3 2
3 1 2
